,Baltra,Bartolome,Caldwell,Champion,Coamano,Daphne Major,Daphne Minor,Darwin,Eden,Enderby,Wspanola,Fernandina,Gardner (Esp.),Gardner (S.M.),Genovesa,Isabela,Marchena,Onslow,Pinta,Pinzon,Las Plazas,Rabida,San Cristobal,San Salvador,Santa Cruz,Santa Fe,Santa Maria,Seymour,Tortuga,Wolf
Baltra,0.0,36.63376149586017,94.91948980244072,86.99147625919987,33.10828499902876,11.936686286651522,11.446829853669312,305.12522106345386,31.595846902974632,86.01787768183995,121.28695180793072,134.87800297592824,415.15978366380455,120.1496107138882,93.31768221862232,104.48625951407766,88.80145722683486,87.42604594713552,128.5054643765105,47.19006802790755,18.493341400401576,49.107597256924464,103.3066868174376,54.03058175688633,21.1761732916626,45.96236448144407,95.51515900242005,7.271451006582352,90.28502411556276,266.6507357288655
Bartolome,36.63376149586017,0.0,116.43173878098222,107.02605438375927,60.596620188168245,25.06748904300024,25.304085790554744,270.7130403478226,30.511180245341766,106.86297086598863,155.32780716823876,104.66001570623645,450.1082410669075,154.63475824933505,94.13862140275984,88.69573009286002,67.25387049810878,105.74793952057092,99.72788966968993,38.39897476109237,54.63565402105045,23.08432871496156,139.788502665455,18.496382621291914,45.88869236349015,80.15629462075374,114.00722621626358,31.75269785054821,87.76037748224037,232.06196498543758
Caldwell,94.91948980244072,116.43173878098223,0.0,10.058200322381477,61.887106755479344,98.81119623324886,101.80216161283887,379.4368566676876,86.41568375095893,9.604293026039393,74.46267765819645,161.77572267711943,410.7127700546107,77.41033381259744,186.06322609908509,103.69517247952234,181.23796821404548,13.910833861330104,216.1266043744062,86.08870397156038,83.23414317623363,107.60173093083793,111.96784953149891,123.79824752878285,74.75499634216368,62.669899500770704,10.353207161016316,101.81862086936975,68.24051111215022,340.75098714567196
Champion,86.99147625919986,107.02605438375925,10.058200322381476,0.0,54.28420489837365,90.18284005426487,93.29879719732311,369.386983006207,76.8377233808434,2.628081879475903,80.87759412824744,152.3851348290918,416.153038921381,83.43430565926093,179.05549545560112,94.86335737156446,172.33256776756966,5.303097023200589,206.6381032542968,76.10049950846194,76.49704869373674,97.6776586059515,113.34101691069412,113.96930224726694,66.40510348062027,58.39147424029714,9.287813712398682,93.72799085526898,59.617192768006866,330.7042069952201
Coamano,33.108284999028776,60.59662018816826,61.887106755479344,54.28420489837365,0.0,38.64183032114369,41.07740484980561,330.96957472431285,36.23907567866624,53.14960341247654,95.95390615090344,139.34585633707297,409.33737404148576,95.77913718560823,124.85895114828698,95.67427240374099,121.00216814388257,55.20435200565044,158.80658241050733,46.31605013704913,23.357990114486345,61.155842038714404,94.5090650891331,73.36942379592821,14.749353397313891,24.67436980761107,63.07721089212995,40.1491720658161,71.52602993076545,292.25914967783825
Daphne Major,11.936686286651522,25.06748904300024,98.81119623324886,90.1828400542649,38.64183032114369,0.0,3.8083504603259053,294.9162832979191,23.854083215776157,89.53398643894792,131.07802335205793,123.57764425013586,427.02406378592934,130.18788819392867,94.44457027882086,96.13306938301535,82.62336242309337,89.92377518220657,120.30343927672997,38.9648225812252,29.568334613149894,37.68283126425057,115.19027255252543,42.12559758397647,24.29807876883354,55.65018872603712,98.17990911524116,9.818869747563422,85.43238109362946,256.3479904888541
Daphne Minor,11.446829853669312,25.304085790554744,101.8021616128389,93.29879719732311,41.077404849805596,3.808350460325905,0.0,293.93958898935426,27.569521529606174,92.58792110084084,132.2277322741666,125.86722398305359,425.5618197241172,131.2072281519795,90.670659480772,99.58854712530895,79.94102988667068,93.16110957689358,118.32717745630966,42.54427147595074,29.844825811355026,40.03426497716685,114.49378848207854,43.06973652255157,27.084463734010992,56.77995931275594,101.39826094627745,7.0962436541766865,89.23276131326081,255.42693009072514
Darwin,305.12522106345386,270.71304034782264,379.43685666768766,369.386983006207,330.96957472431285,294.91628329791905,293.93958898935426,0.0,296.52855090235454,370.0786275316362,425.9605846794914,238.40470945111215,683.8608307861911,425.10075104974334,272.63064132196195,293.68857624266553,227.6214668638117,366.39775883759194,183.09792155883702,293.6269260892397,323.6003262198258,272.8345382781465,401.18219889849996,258.1201347401122,316.4199194055202,350.5662511805183,373.80850131539256,298.5303524740258,322.8839812736913,38.76295857404058
Eden,31.595846902974632,30.511180245341773,86.41568375095892,76.83772338084341,36.23907567866624,23.854083215776157,27.569521529606174,296.52855090235454,0.0,76.81557528528738,131.94308528140905,106.44463296915428,441.61746480332016,131.9163357322665,117.00213298960125,72.93321177268407,97.4092728284782,75.35665824633395,129.81703739910196,15.59492786414809,42.005680658280994,24.92459621604082,127.16413786661181,38.4461497030722,23.93488376376647,59.876158869196146,83.59154852444024,33.14952935821733,62.06528009547825,257.7693176680777
Enderby,86.01787768183996,106.86297086598863,9.604293026039386,2.6280818794758996,53.14960341247654,89.5339864389479,92.58792110084087,370.0786275316362,76.8155752852874,0.0,78.50366042435596,154.0555817353189,413.6261519203371,81.0068648563862,177.7739246864701,96.81531507708954,171.84853027782896,7.828821100987117,206.54435056906343,76.61089695473042,75.08782632794731,98.05935814073733,110.73328524572679,114.21208520027056,65.60499903180364,56.349853447849384,11.355848061995149,92.82669112853924,61.67646876373366,331.37878522841237
Wspanola,121.28695180793072,155.32780716823876,74.46267765819644,80.87759412824744,95.95390615090344,131.07802335205793,132.22773227416664,425.9605846794914,131.94308528140905,78.50366042435596,0.0,227.88868023093764,336.5365730482015,4.780510913405612,190.53200476389964,173.6943092517916,207.27545367370018,86.15847957980124,249.15982378653655,139.4047283797143,103.03107674612913,156.81984259130851,62.038699186685164,169.25856642587382,110.04418637390538,75.45611328621553,84.81496112428712,128.19271940740532,139.44415561621386,387.3517654672636
Fernandina,134.87800297592824,104.66001570623645,161.77572267711943,152.3851348290918,139.34585633707297,123.57764425013586,125.86722398305359,238.4047094511121,106.44463296915428,154.0555817353189,227.8886802309376,0.0,547.9699754110602,229.08568156809983,188.1477933147685,60.12688982953745,138.7301969022774,147.88083471703015,136.91323620725117,93.26725969371219,148.329849830492,85.89592925156231,233.21173306738137,86.97118515629585,129.898566810528,164.0201760491941,153.2768802539305,132.9596208715387,94.78916685967211,202.0378752435367
Gardner (Esp.),415.15978366380443,450.1082410669075,410.7127700546106,416.153038921381,409.33737404148576,427.0240637859293,425.5618197241172,683.8608307861911,441.61746480332016,413.6261519203372,336.5365730482015,547.9699754110602,0.0,333.34488678481165,412.34330181167223,502.7320933086933,463.6688369416953,421.4453009326847,505.9198568167602,454.82348595438935,400.03879934048564,463.808707270225,314.8994083864856,468.4500926910172,418.07230527909496,384.83625424214216,421.04454422989033,418.66110696816054,471.5018259924484,649.8920598441904
Gardner (S.M.),120.14961071388817,154.63475824933508,77.41033381259743,83.43430565926094,95.77913718560823,130.18788819392867,131.2072281519795,425.10075104974345,131.9163357322665,81.0068648563862,4.780510913405595,229.08568156809983,333.34488678481165,0.0,187.58592840683843,175.4970669069617,205.4637652654245,88.732281130476,247.6397986664679,139.8551756859204,101.78657566213634,156.83064770508062,57.47735284043709,168.91672107571478,109.65148616166522,74.54443472825118,87.75784486397977,126.96559106177152,141.52313103341905,386.5346130180062
Genovesa,93.31768221862232,94.13862140275984,186.06322609908509,179.05549545560112,124.85895114828695,94.44457027882086,90.67065948077199,272.63064132196195,117.00213298960124,177.7739246864701,190.5320047638996,188.1477933147685,412.34330181167223,187.58592840683843,0.0,182.78299673118272,56.89660275161639,180.04896836276666,94.3886872742593,130.033958787248,102.83754835824863,117.12223505457402,143.88125958797824,106.2605285498365,114.48608691941345,126.94518283697155,187.93013944371893,87.5815769610484,178.99844897003365,237.7380190147146
Isabela,104.48625951407766,88.69573009286,103.69517247952237,94.86335737156448,95.67427240374099,96.13306938301535,99.58854712530895,293.68857624266553,72.93321177268407,96.81531507708954,173.6943092517916,60.12688982953744,502.7320933086933,175.4970669069617,182.78299673118272,0.0,146.976106618126,90.00476693048459,162.52583451912346,57.36374752509679,111.8223288786392,65.66177485970722,189.14856387921537,78.23225802550246,91.28556440207979,119.10052735121491,94.57649674246653,105.79983203313127,35.52325816960393,256.14739503113685
Marchena,88.80145722683486,67.25387049810878,181.23796821404548,172.33256776756966,121.00216814388257,82.62336242309338,79.94102988667066,227.6214668638117,97.4092728284782,171.84853027782896,207.27545367370018,138.7301969022774,463.6688369416953,205.46376526542454,56.89660275161639,146.976106618126,0.0,171.62469497659043,44.540271286406664,105.10728941980153,105.55517746721937,85.65968037805982,174.38117163173,69.77798975342442,106.91342271585714,133.64562098281402,179.92046060171091,81.53006698885697,153.48907455556082,190.6537657024499
Onslow,87.42604594713553,105.74793952057095,13.910833861330092,5.303097023200588,55.20435200565043,89.92377518220655,93.16110957689357,366.39775883759194,75.35665824633396,7.828821100987119,86.15847957980124,147.88083471703015,421.4453009326847,88.73228113047598,180.04896836276666,90.0047669304846,171.62469497659043,0.0,205.13427790620233,73.60749993002702,77.92114078695676,95.37222171343775,118.10507996875565,111.89732713266044,66.54449266617085,61.381904261602294,8.295803361620726,93.99099407623247,54.65038273089864,327.7495301966742
Pinta,128.5054643765105,99.72788966968992,216.1266043744062,206.6381032542968,158.80658241050733,120.30343927672997,118.32717745630964,183.09792155883702,129.81703739910196,206.54435056906345,249.1598237865365,136.91323620725117,505.9198568167601,247.6397986664679,94.3886872742593,162.52583451912346,44.540271286406664,205.13427790620227,0.0,133.42399463414228,146.32138599992703,111.7375126272368,218.72841545458886,94.57117511056035,144.15855052313592,174.35190711682512,213.33634136271604,121.36592483059303,177.482916348291,146.3018918747573
Pinzon,47.19006802790754,38.39897476109237,86.08870397156038,76.10049950846194,46.31605013704913,38.9648225812252,42.54427147595075,293.6269260892397,15.594927864148092,76.61089695473042,139.4047283797143,93.26725969371219,454.82348595438935,139.85517568592036,130.033958787248,57.36374752509679,105.1072894198015,73.60749993002702,133.42399463414228,0.0,56.5347294198186,21.939824771732937,139.97550543504275,38.94133654704129,36.93753011579455,70.93227254932863,81.48484540105481,48.51465875234013,49.53741457890312,254.89796513026718
Las Plazas,18.493341400401583,54.63565402105045,83.23414317623364,76.49704869373676,23.357990114486352,29.568334613149894,29.844825811355026,323.6003262198258,42.00568065828099,75.08782632794731,103.03107674612913,148.329849830492,400.03879934048564,101.78657566213634,102.83754835824863,111.8223288786392,105.5551774672194,77.92114078695677,146.32138599992706,56.53472941981862,0.0,63.941381766862406,86.48107044046664,71.29091469235783,20.575759313962976,28.124384301205723,85.54269882666549,25.179138434683193,91.99851584621203,285.13671281465116
Rabida,49.107597256924464,23.08432871496156,107.60173093083795,97.67765860595149,61.155842038714404,37.68283126425057,40.03426497716685,272.8345382781465,24.92459621604082,98.05935814073733,156.81984259130851,85.89592925156231,463.808707270225,156.83064770508065,117.12223505457405,65.66177485970722,85.6596803780598,95.37222171343777,111.7375126272368,21.93982477173294,63.941381766862406,0.0,150.31228608106338,17.17094042913822,48.27543472298895,84.50094741025315,103.31936664863068,47.11114218477335,67.88202051250023,234.0761840374538
San Cristobal,103.30668681743762,139.78850266545504,111.96784953149891,113.34101691069412,94.50906508913312,115.19027255252543,114.49378848207854,401.1821988985001,127.16413786661181,110.73328524572679,62.03869918668518,233.21173306738137,314.8994083864856,57.477352840437085,143.88125958797824,189.14856387921543,174.38117163173,118.10507996875565,218.72841545458886,139.97550543504275,86.48107044046662,150.3122860810634,0.0,157.31516331716347,103.39162747091012,70.20361990506585,120.99537635076246,108.16680865900517,160.45823582282267,363.4786746365569
San Salvador,54.03058175688633,18.496382621291914,123.79824752878284,113.96930224726691,73.36942379592821,42.12559758397648,43.06973652255158,258.1201347401122,38.44614970307221,114.21208520027056,169.25856642587382,86.97118515629585,468.4500926910172,168.91672107571478,106.2605285498365,78.23225802550246,69.77798975342442,111.8973271326604,94.57117511056033,38.94133654704129,71.29091469235783,17.17094042913822,157.31516331716347,0.0,59.26670619556691,95.07717589431182,119.93720916203354,49.836767005161,84.45003682122021,219.36548132923798
Santa Cruz,21.176173291662604,45.88869236349016,74.75499634216368,66.40510348062026,14.749353397313886,24.29807876883354,27.084463734010992,316.41991940552015,23.934883763766464,65.60499903180364,110.04418637390538,129.898566810528,418.07230527909496,109.6514861616652,114.48608691941347,91.28556440207979,106.91342271585712,66.54449266617085,144.15855052313592,36.93753011579455,20.575759313962976,48.27543472298895,103.39162747091012,59.26670619556692,0.0,36.25069512162332,74.71045005204405,27.461992369503083,72.15391639239286,277.72720067022686
Santa Fe,45.96236448144407,80.15629462075374,62.669899500770704,58.39147424029716,24.674369807611065,55.65018872603713,56.779959312755956,350.5662511805184,59.876158869196146,56.349853447849384,75.45611328621553,164.0201760491941,384.83625424214216,74.54443472825116,126.94518283697155,119.10052735121488,133.64562098281402,61.38190426160229,174.35190711682512,70.93227254932863,28.124384301205712,84.50094741025316,70.20361990506585,95.07717589431182,36.25069512162332,0.0,67.65289040430679,53.00907462821076,92.10172141411051,311.991425327511
Santa Maria,95.51515900242005,114.00722621626358,10.353207161016316,9.287813712398663,63.07721089212995,98.17990911524116,101.39826094627745,373.80850131539256,83.59154852444024,11.355848061995129,84.81496112428712,153.2768802539305,421.04454422989033,87.75784486397978,187.9301394437189,94.57649674246653,179.9204606017109,8.295803361620708,213.33634136271604,81.48484540105481,85.54269882666549,103.31936664863069,120.99537635076246,119.93720916203354,74.71045005204405,67.65289040430679,0.0,102.13550342753875,59.053261181096,335.19387909455423
Seymour,7.271451006582361,31.75269785054822,101.81862086936978,93.727990855269,40.1491720658161,9.818869747563424,7.0962436541766865,298.5303524740258,33.149529358217336,92.82669112853922,128.19271940740532,132.95962087153868,418.66110696816054,126.96559106177152,87.5815769610484,105.79983203313127,81.53006698885697,93.99099407623245,121.36592483059303,48.514658752340125,25.179138434683196,47.11114218477335,108.16680865900517,49.836767005160986,27.461992369503086,53.009074628210776,102.13550342753875,0.0,93.89175833698768,260.1104882917841
Tortuga,90.28502411556276,87.76037748224037,68.24051111215022,59.61719276800686,71.52602993076543,85.43238109362944,89.23276131326082,322.88398127369123,62.06528009547825,61.67646876373366,139.44415561621386,94.78916685967212,471.5018259924483,141.52313103341902,178.99844897003362,35.52325816960391,153.4890745555608,54.65038273089863,177.482916348291,49.537414578903125,91.99851584621202,67.88202051250023,160.4582358228226,84.45003682122021,72.15391639239287,92.10172141411051,59.05326118109598,93.89175833698768,0.0,284.747806617078
Wolf,266.65073572886547,232.06196498543758,340.7509871456719,330.70420699522003,292.25914967783825,256.3479904888541,255.42693009072514,38.762958574040574,257.76931766807763,331.37878522841237,387.3517654672636,202.0378752435367,649.8920598441904,386.53461301800616,237.7380190147146,256.14739503113685,190.6537657024499,327.7495301966742,146.3018918747573,254.89796513026712,285.13671281465116,234.0761840374538,363.4786746365569,219.36548132923792,277.7272006702269,311.99142532751097,335.1938790945542,260.11048829178407,284.747806617078,0.0
